{
  "page": 1,
  "total_results": 899067,
  "total_pages": 44954,
  "results": [
    {
      "genre_ids": [16, 10751, 12, 35],
      "adult": false,
      "backdrop_path": "/xg27NrXi7VXCGUr7MG75UqLl6Vg.jpg",
      "id": 1022789,
      "original_title": "Inside Out 2",
      "vote_average": 7.701,
      "popularity": 4128.506,
      "poster_path": "/9h2KgGXSmWigNTn3kQdEFFngj9i.jpg",
      "overview": "\"Divertida Mente 2\", da Disney e da Pixar, retorna à mente da adolescente Riley, e o faz no momento em que a sala de comando está passando por uma demolição repentina para dar lugar a algo totalmente inesperado: novas emoções! Alegria, Tristeza, Raiva, Medo e Nojinho não sabem bem como reagir quando Ansiedade aparece, e tudo indica que ela não está sozinha.",
      "title": "Divertida Mente 2",
      "original_language": "en",
      "vote_count": 1304,
      "release_date": "2024-06-11",
      "video": false
    },
    {
      "genre_ids": [28, 12, 878],
      "adult": false,
      "backdrop_path": "/wNAhuOZ3Zf84jCIlrcI6JhgmY5q.jpg",
      "id": 786892,
      "original_title": "Furiosa: A Mad Max Saga",
      "vote_average": 7.701,
      "popularity": 4115.719,
      "poster_path": "/7qOSKoOAPgemYhBwbJgBWcCxPWZ.jpg",
      "overview": "Quando o mundo entra em colapso, a jovem Furiosa é sequestrada do Green Place das Muitas Mães e cai nas mãos da horda de motoqueiros liderada pelo Senhor da Guerra Dementus. Vagando pelo deserto condenado, eles encontram a Cidadela controlada por Immortan Joe. Enquanto os dois tiranos lutam por poder e controle, Furiosa terá que sobreviver a muitos desafios para encontrar e trilhar o caminho de volta para casa.",
      "title": "Furiosa: Uma Saga Mad Max",
      "original_language": "en",
      "vote_count": 1704,
      "release_date": "2024-05-22",
      "video": false
    },
    {
      "genre_ids": [878, 12, 28],
      "adult": false,
      "backdrop_path": "/fqv8v6AycXKsivp1T5yKtLbGXce.jpg",
      "id": 653346,
      "original_title": "Kingdom of the Planet of the Apes",
      "vote_average": 6.862,
      "popularity": 1777.192,
      "poster_path": "/dzDK2TMXsxrolGVdZwNGcOlZqrF.jpg",
      "overview": "Várias gerações no futuro, após o reinado de César, os macacos são agora a espécie dominante e vivem harmoniosamente, enquanto os humanos foram reduzidos a viver nas sombras. À medida que um novo líder símio tirânico constrói o seu império, um jovem macaco empreende uma jornada angustiante que o levará a questionar tudo o que sabia sobre o passado e a fazer escolhas que definirão um futuro tanto para os macacos como para os humanos.",
      "title": "Planeta dos Macacos: O Reinado",
      "original_language": "en",
      "vote_count": 1295,
      "release_date": "2024-05-08",
      "video": false
    },
    {
      "genre_ids": [28, 80, 53, 35],
      "adult": false,
      "backdrop_path": "/gRApXuxWmO2forYTuTmcz5RaNUV.jpg",
      "id": 573435,
      "original_title": "Bad Boys: Ride or Die",
      "vote_average": 7.029,
      "popularity": 1329.004,
      "poster_path": "/ak6VZDHms5T4p0eFISk336kqjR6.jpg",
      "overview": "Depois que seu falecido ex-capitão é incriminado, Lowrey e Burnett tentam limpar seu nome, apenas para acabarem se tornando os mais procurados de Miami.",
      "title": "Bad Boys: Até o Fim",
      "original_language": "en",
      "vote_count": 483,
      "release_date": "2024-06-05",
      "video": false
    },
    {
      "genre_ids": [16, 10751, 35, 28],
      "adult": false,
      "backdrop_path": "/j29ekbcLpBvxnGk6LjdTc2EI5SA.jpg",
      "id": 150540,
      "original_title": "Inside Out",
      "vote_average": 7.915,
      "popularity": 1320.405,
      "poster_path": "/62SAZfLfzhxJWUFJvfIPMw6QUpE.jpg",
      "overview": "Baseadas na Sala de Comando, o centro de controle dentro da mente de Riley de 11 anos, cinco emoções trabalham sem parar, lideradas pela otimista Alegria. Ela se esforça muito para garantir que Riley esteja sempre feliz, e trabalha ao lado do Medo, Raiva, Nojinho e Tristeza.",
      "title": "Divertida Mente",
      "original_language": "en",
      "vote_count": 21041,
      "release_date": "2015-06-17",
      "video": false
    },
    {
      "genre_ids": [28, 10751, 12, 18, 35],
      "adult": false,
      "backdrop_path": "/fDmci71SMkfZM8RnCuXJVDPaSdE.jpg",
      "id": 519182,
      "original_title": "Despicable Me 4",
      "vote_average": 8.4,
      "popularity": 1256.95,
      "poster_path": "/65QQjZNrVfTiuGp3chxx8dkfHDG.jpg",
      "overview": "Nesta sequência, o vilão mais amado do planeta retorna e agora Gru, Lucy, Margo, Edith e Agnes dão as boas-vindas a um novo membro da família: Gru Jr., que pretende atormentar seu pai. Enquanto se adapta com o pequeno, Gru enfrenta um novo inimigo, Maxime Le Mal, forçando sua namorada Valentina e a família a fugir do perigo.",
      "title": "Meu Malvado Favorito 4",
      "original_language": "en",
      "vote_count": 80,
      "release_date": "2024-06-20",
      "video": false
    },
    {
      "genre_ids": [28, 80, 53],
      "adult": false,
      "backdrop_path": "/aATi2PtaOQCVAquCym6OU0Z4FjY.jpg",
      "id": 704673,
      "original_title": "Trigger Warning",
      "vote_average": 5.764,
      "popularity": 1205.913,
      "poster_path": "/cQLJT6hTXio0md94oBsSWADOECf.jpg",
      "overview": "Uma militar de elite descobre uma perigosa conspiração ao retornar à cidade natal em busca de respostas para a morte do pai.",
      "title": "Alerta de Risco",
      "original_language": "en",
      "vote_count": 242,
      "release_date": "2024-06-20",
      "video": false
    },
    {
      "genre_ids": [35, 28],
      "adult": false,
      "backdrop_path": "/yHEFwHkU2NqRxBrAoGBfuhuqIL1.jpg",
      "id": 1143019,
      "original_title": "Les Infaillibles",
      "vote_average": 5.8,
      "popularity": 1099.074,
      "poster_path": "/jEjVWSz1hhVCO5Ab5QId90m6AfW.jpg",
      "overview": "Quando uma gangue de ladrões provoca o caos em toda a cidade, um improvável grupo de vigilantes se une para frustrar seus planos.",
      "title": "Os Infalíveis",
      "original_language": "fr",
      "vote_count": 30,
      "release_date": "2024-06-19",
      "video": false
    },
    {
      "genre_ids": [878, 53, 18],
      "adult": false,
      "backdrop_path": "/kMYIk9WcWskvwP3Xc1hImXC1bcA.jpg",
      "id": 647617,
      "original_title": "Eyes of the Forest",
      "vote_average": 6.7,
      "popularity": 1065.129,
      "poster_path": "/cS0FVrJQcMSnH18bWTXu7QfW4L8.jpg",
      "overview": "Um biólogo talentoso e um ranger iniciante juntam forças para investigar uma série de desaparecimentos misteriosos em uma floresta isolada, apenas para descobrir uma ameaça que desafia as fronteiras entre a ciência e o oculto.",
      "title": "Olhos da Floresta",
      "original_language": "en",
      "vote_count": 72,
      "release_date": "2024-06-19",
      "video": false
    },
    {
      "genre_ids": [16, 10751, 35, 12],
      "adult": false,
      "backdrop_path": "/iL2k3X1G5FNgp3eFzSgOInLBmJ0.jpg",
      "id": 757004,
      "original_title": "Happy Halloween, Scooby-Doo!",
      "vote_average": 7.8,
      "popularity": 1064.686,
      "poster_path": "/h9qfmE27Q6a5H1Fv1i9q03DMTJN.jpg",
      "overview": "Os amigos da Mistério S/A se unem para celebrar o Halloween em Nova Orleans, mas seus planos são interrompidos por um misterioso bicho-papão que assombra o bairro.",
      "title": "Scooby-Doo! Halloween Feliz",
      "original_language": "en",
      "vote_count": 74,
      "release_date": "2024-06-20",
      "video": false
    },
    {
      "genre_ids": [28, 80, 53],
      "adult": false,
      "backdrop_path": "/2aGsLbWe7B4XyHP2cSHlPcFj4Qv.jpg",
      "id": 1190635,
      "original_title": "The Billion Dollar Spy",
      "vote_average": 7.8,
      "popularity": 1042.223,
      "poster_path": "/b7j8yUWYPFlzZlMKTFe9VveoApE.jpg",
      "overview": "Em meados da Guerra Fria, um engenheiro americano é recrutado pela CIA para se tornar um espião em Moscou, onde ele trabalha para descobrir segredos nucleares soviéticos, mas seu papel se torna cada vez mais perigoso quando ele é caçado pela KGB.",
      "title": "O Espião de Um Bilhão de Dólares",
      "original_language": "en",
      "vote_count": 19,
      "release_date": "2024-06-20",
      "video": false
    },
    {
      "genre_ids": [28, 12, 14],
      "adult": false,
      "backdrop_path": "/a7J4v5Dme2M9Xs5pGIF7yMfBYhj.jpg",
      "id": 592865,
      "original_title": "Chrono Hunters",
      "vote_average": 7.6,
      "popularity": 936.792,
      "poster_path": "/9d9fBHZUI53GEejHs2qgvjvIqdS.jpg",
      "overview": "Dois amigos inseparáveis viajam pelo tempo e espaço para recuperar artefatos roubados de civilizações antigas, enquanto enfrentam inimigos implacáveis e evitam alterações catastróficas na história.",
      "title": "Caçadores do Crono",
      "original_language": "en",
      "vote_count": 116,
      "release_date": "2024-06-19",
      "video": false
    },
    {
      "genre_ids": [28, 12, 878, 53],
      "adult": false,
      "backdrop_path": "/eTGwZBd8vf8zxgH2c0jchZy5QjD.jpg",
      "id": 1168693,
      "original_title": "Armageddon Time",
      "vote_average": 7.7,
      "popularity": 912.491,
      "poster_path": "/bbB9f0G34o4h8DjLq0y8uIc4LMX.jpg",
      "overview": "Um jovem garoto cresce em meio ao caos dos anos 1980 enquanto enfrenta os desafios de uma escola rigorosa e um pai problemático.",
      "title": "Tempo do Armagedom",
      "original_language": "en",
      "vote_count": 10,
      "release_date": "2024-06-19",
      "video": false
    },
    {
      "genre_ids": [28, 53],
      "adult": false,
      "backdrop_path": "/yZDC4A5M6rOPaUJv4M8GA1J1j2E.jpg",
      "id": 761053,
      "original_title": "Unto the Son",
      "vote_average": 8,
      "popularity": 905.911,
      "poster_path": "/bXj0tQ2eFBC8jPfZlUf5n6P7YeZ.jpg",
      "overview": "Um veterano das Forças Especiais volta para casa após anos de serviço no exterior e se encontra em uma luta para proteger sua família de um sindicato do crime implacável que se expande em sua comunidade.",
      "title": "Até o Filho",
      "original_language": "en",
      "vote_count": 5,
      "release_date": "2024-06-20",
      "video": false
    },
    {
      "genre_ids": [28, 80, 53],
      "adult": false,
      "backdrop_path": "/k8XH7kXBVDegRauNlUXx5MxCbLJ.jpg",
      "id": 1032457,
      "original_title": "Hot Wheels: A Origem dos Aceleradores",
      "vote_average": 6.7,
      "popularity": 900.396,
      "poster_path": "/qXtaV5hQO4vgJcGTX3M97Mk8V9A.jpg",
      "overview": "Quando um adolescente desajeitado e um gênio das máquinas se juntam para construir carros de corrida em miniatura, eles inadvertidamente atraem a atenção de um misterioso industrial que quer dominar o esporte de qualquer maneira possível.",
      "title": "Hot Wheels: Origem dos Aceleradores",
      "original_language": "en",
      "vote_count": 13,
      "release_date": "2024-06-12",
      "video": false
    },
    {
      "genre_ids": [12, 28, 53],
      "adult": false,
      "backdrop_path": "/jI8J5evBErPOotfYDLFzdl1FKdb.jpg",
      "id": 835404,
      "original_title": "Black Rose",
      "vote_average": 7.4,
      "popularity": 867.581,
      "poster_path": "/8DGDc4gThT9NMAvbPU7U1AAdKAP.jpg",
      "overview": "Enquanto explora uma cidade abandonada no extremo norte, um grupo de turistas é surpreendido por uma onda de calor mortal que traz à vida uma antiga maldição, forçando-os a lutar pela sobrevivência enquanto tentam escapar.",
      "title": "Rosa Negra",
      "original_language": "en",
      "vote_count": 19,
      "release_date": "2024-06-19",
      "video": false
    },
    {
      "genre_ids": [28, 80, 53],
      "adult": false,
      "backdrop_path": "/eiiCVXtc6ISRMAsfrAf35mtIa5A.jpg",
      "id": 755848,
      "original_title": "The Manhattan Project",
      "vote_average": 6.3,
      "popularity": 852.737,
      "poster_path": "/8dFpvCHu57vyqXwc2H23O7M7zY.jpg",
      "overview": "Um adolescente prodígio e sua mãe estranha se encontram no epicentro de uma conspiração mortal quando ele descobre um segredo perturbador sobre sua cidade natal aparentemente pacífica.",
      "title": "O Projeto Manhattan",
      "original_language": "en",
      "vote_count": 8,
      "release_date": "2024-06-19",
      "video": false
    },
    {
      "genre_ids": [35, 18, 10749],
      "adult": false,
      "backdrop_path": "/r2QuMz62djNSXxrC6DsnRYGw77M.jpg",
      "id": 731445,
      "original_title": "1st Shot at Love",
      "vote_average": 6.9,
      "popularity": 852.451,
      "poster_path": "/fGON0IbRq7lGusOJtIsK55WWb2D.jpg",
      "overview": "Uma romântica em série com amnésia cronometrada deve recriar seu relacionamento dos sonhos em 14 dias para ganhar um prêmio de um milhão de dólares, mas ela não esperava se apaixonar pelo alvo errado.",
      "title": "1º Tiro no Amor",
      "original_language": "en",
      "vote_count": 8,
      "release_date": "2024-06-19",
      "video": false
    },
    {
      "genre_ids": [28, 12, 16],
      "adult": false,
      "backdrop_path": "/hQbqU4ItaOO4hXywHJ73Xnv6Frj.jpg",
      "id": 849937,
      "original_title": "The Amazing Maurice",
      "vote_average": 7.2,
      "popularity": 848.632,
      "poster_path": "/ur23G2p3Mc6mQTcGklVssgwyfMN.jpg",
      "overview": "Maurice, um gato inteligente e sua equipe de ratos, fazem uma farsa de infestação de pragas em cidades assombradas para colher recompensas, até que descobrem uma conspiração sinistra que ameaça humanos e animais.",
      "title": "O Incrível Maurice",
      "original_language": "en",
      "vote_count": 17,
      "release_date": "2024-06-21",
      "video": false
    },
    {
      "genre_ids": [28, 80, 9648, 53],
      "adult": false,
      "backdrop_path": "/bV39nWq39c6uDlLJQaWv3e3JZr4.jpg",
      "id": 710791,
      "original_title": "Back 2 Love",
      "vote_average": 6.7,
      "popularity": 848.191,
      "poster_path": "/foEhn5s9j6Th9W6bUaDA5SiJlF8.jpg",
      "overview": "Um investigador particular obstinado deve rastrear um criminoso que fugiu para o México para salvar a mãe de um adolescente, mas ele não esperava se apaixonar por uma médica teimosa no processo.",
      "title": "De Volta ao Amor",
      "original_language": "en",
      "vote_count": 14,
      "release_date": "2024-06-19",
      "video": false
    }
  ]
}
